{
  "name": "get_api_org_evidence_a90b7c8d8d0b.json",
  "interactions": [
    {
      "request": {
        "method": "GET",
        "url": "https://api-my.tugboatlogic.com/api/org_evidence/?org=12345&page=1&page_size=1",
        "headers": {
          "Accept": "application/json",
          "Authorization": "[REDACTED]",
          "Content-Type": "application/json",
          "User-Agent": "grctool/1.0.0"
        }
      },
      "response": {
        "status_code": 200,
        "status": "200 OK",
        "headers": {
          "Allow": "GET, POST, HEAD, OPTIONS",
          "Content-Length": "1111",
          "Content-Type": "application/json",
          "Cross-Origin-Opener-Policy": "same-origin",
          "Date": "Tue, 01 Jul 2025 21:25:42 GMT",
          "Referrer-Policy": "same-origin",
          "Server": "nginx",
          "Vary": "Origin, Cookie",
          "X-Content-Type-Options": "nosniff",
          "X-Frame-Options": "DENY"
        },
        "body": "{\"max_page_size\":200,\"page_size\":1,\"num_pages\":105,\"page_number\":1,\"count\":105,\"next\":2,\"previous\":null,\"results\":[{\"id\":327992,\"__entity_role__\":null,\"__entity_type__\":\"org_evidence\",\"__permissions__\":[\"org_evidence:delete\",\"org_evidence:create_subtask\",\"org_evidence:master_evidence_diff\",\"org_evidence:view_details\",\"org_evidence:comment\",\"org_evidence:observation\",\"org_evidence:remind\",\"org_evidence:upgrade\",\"org_evidence:add\",\"org_evidence:deadline\",\"org_evidence:mark_reviewed\",\"org_evidence:mark_sensitive\",\"org_evidence:create_jira_issue\",\"org_evidence:manage_tags\",\"org_evidence:edit\",\"org_evidence:manage_acl\",\"org_evidence:assign\"],\"created\":\"2021-12-17T14:42:01.070790Z\",\"name\":\"Access Control / Registration and De-registration Process Document\",\"description\":\"Provide user registration and de-registration process document/Access Control policy or procedure reviewed by management.\",\"guidance\":\"\",\"ad_hoc\":false,\"last_collected\":\"2024-04-03\",\"collection_interval\":\"year\",\"due_days_before_end\":0,\"master_version_num\":5,\"sensitive\":false,\"org_id\":12345,\"completed\":true,\"master_evidence_id\":550}]}"
      },
      "timestamp": "2025-07-01T17:25:42.58328-04:00"
    },
    {
      "request": {
        "method": "GET",
        "url": "https://api-my.tugboatlogic.com/api/org_evidence/?org=12345&page=1&page_size=1",
        "headers": {
          "Accept": "application/json",
          "Authorization": "[REDACTED]",
          "Content-Type": "application/json",
          "User-Agent": "grctool/1.0.0"
        }
      },
      "response": {
        "status_code": 200,
        "status": "200 OK",
        "headers": {
          "Allow": "GET, POST, HEAD, OPTIONS",
          "Content-Length": "1111",
          "Content-Type": "application/json",
          "Cross-Origin-Opener-Policy": "same-origin",
          "Date": "Tue, 01 Jul 2025 21:25:42 GMT",
          "Referrer-Policy": "same-origin",
          "Server": "nginx",
          "Vary": "Origin, Cookie",
          "X-Content-Type-Options": "nosniff",
          "X-Frame-Options": "DENY"
        },
        "body": "{\"max_page_size\":200,\"page_size\":1,\"num_pages\":105,\"page_number\":1,\"count\":105,\"next\":2,\"previous\":null,\"results\":[{\"id\":327992,\"__entity_role__\":null,\"__entity_type__\":\"org_evidence\",\"__permissions__\":[\"org_evidence:delete\",\"org_evidence:create_subtask\",\"org_evidence:master_evidence_diff\",\"org_evidence:view_details\",\"org_evidence:comment\",\"org_evidence:observation\",\"org_evidence:remind\",\"org_evidence:upgrade\",\"org_evidence:add\",\"org_evidence:deadline\",\"org_evidence:mark_reviewed\",\"org_evidence:mark_sensitive\",\"org_evidence:create_jira_issue\",\"org_evidence:manage_tags\",\"org_evidence:edit\",\"org_evidence:manage_acl\",\"org_evidence:assign\"],\"created\":\"2021-12-17T14:42:01.070790Z\",\"name\":\"Access Control / Registration and De-registration Process Document\",\"description\":\"Provide user registration and de-registration process document/Access Control policy or procedure reviewed by management.\",\"guidance\":\"\",\"ad_hoc\":false,\"last_collected\":\"2024-04-03\",\"collection_interval\":\"year\",\"due_days_before_end\":0,\"master_version_num\":5,\"sensitive\":false,\"org_id\":12345,\"completed\":true,\"master_evidence_id\":550}]}"
      },
      "timestamp": "2025-07-01T17:25:42.783115-04:00"
    },
    {
      "request": {
        "method": "GET",
        "url": "https://api-my.tugboatlogic.com/api/org_evidence/?org=12345&page=1&page_size=1",
        "headers": {
          "Accept": "application/json",
          "Authorization": "[REDACTED]",
          "Content-Type": "application/json",
          "User-Agent": "grctool/1.0.0"
        }
      },
      "response": {
        "status_code": 200,
        "status": "200 OK",
        "headers": {
          "Allow": "GET, POST, HEAD, OPTIONS",
          "Content-Length": "1111",
          "Content-Type": "application/json",
          "Cross-Origin-Opener-Policy": "same-origin",
          "Date": "Tue, 01 Jul 2025 21:25:43 GMT",
          "Referrer-Policy": "same-origin",
          "Server": "nginx",
          "Vary": "Origin, Cookie",
          "X-Content-Type-Options": "nosniff",
          "X-Frame-Options": "DENY"
        },
        "body": "{\"max_page_size\":200,\"page_size\":1,\"num_pages\":105,\"page_number\":1,\"count\":105,\"next\":2,\"previous\":null,\"results\":[{\"id\":327992,\"__entity_role__\":null,\"__entity_type__\":\"org_evidence\",\"__permissions__\":[\"org_evidence:delete\",\"org_evidence:create_subtask\",\"org_evidence:master_evidence_diff\",\"org_evidence:view_details\",\"org_evidence:comment\",\"org_evidence:observation\",\"org_evidence:remind\",\"org_evidence:upgrade\",\"org_evidence:add\",\"org_evidence:deadline\",\"org_evidence:mark_reviewed\",\"org_evidence:mark_sensitive\",\"org_evidence:create_jira_issue\",\"org_evidence:manage_tags\",\"org_evidence:edit\",\"org_evidence:manage_acl\",\"org_evidence:assign\"],\"created\":\"2021-12-17T14:42:01.070790Z\",\"name\":\"Access Control / Registration and De-registration Process Document\",\"description\":\"Provide user registration and de-registration process document/Access Control policy or procedure reviewed by management.\",\"guidance\":\"\",\"ad_hoc\":false,\"last_collected\":\"2024-04-03\",\"collection_interval\":\"year\",\"due_days_before_end\":0,\"master_version_num\":5,\"sensitive\":false,\"org_id\":12345,\"completed\":true,\"master_evidence_id\":550}]}"
      },
      "timestamp": "2025-07-01T17:25:43.586889-04:00"
    },
    {
      "request": {
        "method": "GET",
        "url": "https://api-my.tugboatlogic.com/api/org_evidence/?org=12345&page=1&page_size=1",
        "headers": {
          "Accept": "application/json",
          "Authorization": "[REDACTED]",
          "Content-Type": "application/json",
          "User-Agent": "grctool/1.0.0"
        }
      },
      "response": {
        "status_code": 200,
        "status": "200 OK",
        "headers": {
          "Allow": "GET, POST, HEAD, OPTIONS",
          "Content-Length": "1111",
          "Content-Type": "application/json",
          "Cross-Origin-Opener-Policy": "same-origin",
          "Date": "Tue, 01 Jul 2025 21:25:43 GMT",
          "Referrer-Policy": "same-origin",
          "Server": "nginx",
          "Vary": "Origin, Cookie",
          "X-Content-Type-Options": "nosniff",
          "X-Frame-Options": "DENY"
        },
        "body": "{\"max_page_size\":200,\"page_size\":1,\"num_pages\":105,\"page_number\":1,\"count\":105,\"next\":2,\"previous\":null,\"results\":[{\"id\":327992,\"__entity_role__\":null,\"__entity_type__\":\"org_evidence\",\"__permissions__\":[\"org_evidence:assign\",\"org_evidence:mark_reviewed\",\"org_evidence:mark_sensitive\",\"org_evidence:observation\",\"org_evidence:master_evidence_diff\",\"org_evidence:upgrade\",\"org_evidence:create_subtask\",\"org_evidence:create_jira_issue\",\"org_evidence:remind\",\"org_evidence:view_details\",\"org_evidence:deadline\",\"org_evidence:manage_acl\",\"org_evidence:add\",\"org_evidence:manage_tags\",\"org_evidence:delete\",\"org_evidence:comment\",\"org_evidence:edit\"],\"created\":\"2021-12-17T14:42:01.070790Z\",\"name\":\"Access Control / Registration and De-registration Process Document\",\"description\":\"Provide user registration and de-registration process document/Access Control policy or procedure reviewed by management.\",\"guidance\":\"\",\"ad_hoc\":false,\"last_collected\":\"2024-04-03\",\"collection_interval\":\"year\",\"due_days_before_end\":0,\"master_version_num\":5,\"sensitive\":false,\"org_id\":12345,\"completed\":true,\"master_evidence_id\":550}]}"
      },
      "timestamp": "2025-07-01T17:25:43.68601-04:00"
    },
    {
      "request": {
        "method": "GET",
        "url": "https://api-my.tugboatlogic.com/api/org_evidence/?page=1&page_size=1&org=12345",
        "headers": {
          "Accept": "application/json",
          "Authorization": "[REDACTED]",
          "Content-Type": "application/json",
          "User-Agent": "grctool/1.0.0"
        }
      },
      "response": {
        "status_code": 200,
        "status": "200 OK",
        "headers": {
          "Allow": "GET, POST, HEAD, OPTIONS",
          "Content-Length": "1111",
          "Content-Type": "application/json",
          "Cross-Origin-Opener-Policy": "same-origin",
          "Date": "Tue, 01 Jul 2025 21:26:03 GMT",
          "Referrer-Policy": "same-origin",
          "Server": "nginx",
          "Vary": "Origin, Cookie",
          "X-Content-Type-Options": "nosniff",
          "X-Frame-Options": "DENY"
        },
        "body": "{\"max_page_size\":200,\"page_size\":1,\"num_pages\":105,\"page_number\":1,\"count\":105,\"next\":2,\"previous\":null,\"results\":[{\"id\":327992,\"__entity_role__\":null,\"__entity_type__\":\"org_evidence\",\"__permissions__\":[\"org_evidence:assign\",\"org_evidence:mark_reviewed\",\"org_evidence:mark_sensitive\",\"org_evidence:observation\",\"org_evidence:master_evidence_diff\",\"org_evidence:upgrade\",\"org_evidence:create_subtask\",\"org_evidence:create_jira_issue\",\"org_evidence:remind\",\"org_evidence:view_details\",\"org_evidence:deadline\",\"org_evidence:manage_acl\",\"org_evidence:add\",\"org_evidence:manage_tags\",\"org_evidence:delete\",\"org_evidence:comment\",\"org_evidence:edit\"],\"created\":\"2021-12-17T14:42:01.070790Z\",\"name\":\"Access Control / Registration and De-registration Process Document\",\"description\":\"Provide user registration and de-registration process document/Access Control policy or procedure reviewed by management.\",\"guidance\":\"\",\"ad_hoc\":false,\"last_collected\":\"2024-04-03\",\"collection_interval\":\"year\",\"due_days_before_end\":0,\"master_version_num\":5,\"sensitive\":false,\"org_id\":12345,\"completed\":true,\"master_evidence_id\":550}]}"
      },
      "timestamp": "2025-07-01T17:26:03.769704-04:00"
    },
    {
      "request": {
        "method": "GET",
        "url": "https://api-my.tugboatlogic.com/api/org_evidence/?page=1&page_size=1&org=12345",
        "headers": {
          "Accept": "application/json",
          "Authorization": "[REDACTED]",
          "Content-Type": "application/json",
          "User-Agent": "grctool/1.0.0"
        }
      },
      "response": {
        "status_code": 200,
        "status": "200 OK",
        "headers": {
          "Allow": "GET, POST, HEAD, OPTIONS",
          "Content-Length": "1111",
          "Content-Type": "application/json",
          "Cross-Origin-Opener-Policy": "same-origin",
          "Date": "Thu, 03 Jul 2025 19:49:29 GMT",
          "Referrer-Policy": "same-origin",
          "Server": "nginx",
          "Vary": "Origin, Cookie",
          "X-Content-Type-Options": "nosniff",
          "X-Frame-Options": "DENY"
        },
        "body": "{\"max_page_size\":200,\"page_size\":1,\"num_pages\":105,\"page_number\":1,\"count\":105,\"next\":2,\"previous\":null,\"results\":[{\"id\":327992,\"__entity_role__\":null,\"__entity_type__\":\"org_evidence\",\"__permissions__\":[\"org_evidence:remind\",\"org_evidence:mark_sensitive\",\"org_evidence:comment\",\"org_evidence:upgrade\",\"org_evidence:mark_reviewed\",\"org_evidence:observation\",\"org_evidence:create_subtask\",\"org_evidence:master_evidence_diff\",\"org_evidence:add\",\"org_evidence:manage_acl\",\"org_evidence:view_details\",\"org_evidence:manage_tags\",\"org_evidence:assign\",\"org_evidence:edit\",\"org_evidence:create_jira_issue\",\"org_evidence:delete\",\"org_evidence:deadline\"],\"created\":\"2021-12-17T14:42:01.070790Z\",\"name\":\"Access Control / Registration and De-registration Process Document\",\"description\":\"Provide user registration and de-registration process document/Access Control policy or procedure reviewed by management.\",\"guidance\":\"\",\"ad_hoc\":false,\"last_collected\":\"2024-04-03\",\"collection_interval\":\"year\",\"due_days_before_end\":0,\"master_version_num\":5,\"sensitive\":false,\"org_id\":12345,\"completed\":true,\"master_evidence_id\":550}]}"
      },
      "timestamp": "2025-07-03T15:49:28.99211-04:00"
    },
    {
      "request": {
        "method": "GET",
        "url": "https://api-my.tugboatlogic.com/api/org_evidence/?page=1&page_size=1&org=12345",
        "headers": {
          "Accept": "application/json",
          "Authorization": "[REDACTED]",
          "Content-Type": "application/json",
          "User-Agent": "grctool/1.0.0"
        }
      },
      "response": {
        "status_code": 200,
        "status": "200 OK",
        "headers": {
          "Allow": "GET, POST, HEAD, OPTIONS",
          "Content-Length": "1111",
          "Content-Type": "application/json",
          "Cross-Origin-Opener-Policy": "same-origin",
          "Date": "Thu, 03 Jul 2025 19:49:44 GMT",
          "Referrer-Policy": "same-origin",
          "Server": "nginx",
          "Vary": "Origin, Cookie",
          "X-Content-Type-Options": "nosniff",
          "X-Frame-Options": "DENY"
        },
        "body": "{\"max_page_size\":200,\"page_size\":1,\"num_pages\":105,\"page_number\":1,\"count\":105,\"next\":2,\"previous\":null,\"results\":[{\"id\":327992,\"__entity_role__\":null,\"__entity_type__\":\"org_evidence\",\"__permissions__\":[\"org_evidence:remind\",\"org_evidence:mark_sensitive\",\"org_evidence:comment\",\"org_evidence:upgrade\",\"org_evidence:mark_reviewed\",\"org_evidence:observation\",\"org_evidence:create_subtask\",\"org_evidence:master_evidence_diff\",\"org_evidence:add\",\"org_evidence:manage_acl\",\"org_evidence:view_details\",\"org_evidence:manage_tags\",\"org_evidence:assign\",\"org_evidence:edit\",\"org_evidence:create_jira_issue\",\"org_evidence:delete\",\"org_evidence:deadline\"],\"created\":\"2021-12-17T14:42:01.070790Z\",\"name\":\"Access Control / Registration and De-registration Process Document\",\"description\":\"Provide user registration and de-registration process document/Access Control policy or procedure reviewed by management.\",\"guidance\":\"\",\"ad_hoc\":false,\"last_collected\":\"2024-04-03\",\"collection_interval\":\"year\",\"due_days_before_end\":0,\"master_version_num\":5,\"sensitive\":false,\"org_id\":12345,\"completed\":true,\"master_evidence_id\":550}]}"
      },
      "timestamp": "2025-07-03T15:49:44.069564-04:00"
    },
    {
      "request": {
        "method": "GET",
        "url": "https://api-my.tugboatlogic.com/api/org_evidence/?page=1&page_size=1&org=12345",
        "headers": {
          "Accept": "application/json",
          "Authorization": "[REDACTED]",
          "Content-Type": "application/json",
          "User-Agent": "grctool/1.0.0"
        }
      },
      "response": {
        "status_code": 200,
        "status": "200 OK",
        "headers": {
          "Allow": "GET, POST, HEAD, OPTIONS",
          "Content-Length": "1111",
          "Content-Type": "application/json",
          "Cross-Origin-Opener-Policy": "same-origin",
          "Date": "Thu, 03 Jul 2025 19:52:45 GMT",
          "Referrer-Policy": "same-origin",
          "Server": "nginx",
          "Vary": "Origin, Cookie",
          "X-Content-Type-Options": "nosniff",
          "X-Frame-Options": "DENY"
        },
        "body": "{\"max_page_size\":200,\"page_size\":1,\"num_pages\":105,\"page_number\":1,\"count\":105,\"next\":2,\"previous\":null,\"results\":[{\"id\":327992,\"__entity_role__\":null,\"__entity_type__\":\"org_evidence\",\"__permissions__\":[\"org_evidence:master_evidence_diff\",\"org_evidence:manage_tags\",\"org_evidence:assign\",\"org_evidence:create_subtask\",\"org_evidence:remind\",\"org_evidence:deadline\",\"org_evidence:add\",\"org_evidence:observation\",\"org_evidence:create_jira_issue\",\"org_evidence:manage_acl\",\"org_evidence:edit\",\"org_evidence:upgrade\",\"org_evidence:comment\",\"org_evidence:delete\",\"org_evidence:mark_sensitive\",\"org_evidence:mark_reviewed\",\"org_evidence:view_details\"],\"created\":\"2021-12-17T14:42:01.070790Z\",\"name\":\"Access Control / Registration and De-registration Process Document\",\"description\":\"Provide user registration and de-registration process document/Access Control policy or procedure reviewed by management.\",\"guidance\":\"\",\"ad_hoc\":false,\"last_collected\":\"2024-04-03\",\"collection_interval\":\"year\",\"due_days_before_end\":0,\"master_version_num\":5,\"sensitive\":false,\"org_id\":12345,\"completed\":true,\"master_evidence_id\":550}]}"
      },
      "timestamp": "2025-07-03T15:52:45.648269-04:00"
    },
    {
      "request": {
        "method": "GET",
        "url": "https://api-my.tugboatlogic.com/api/org_evidence/?page=1&page_size=1&org=12345",
        "headers": {
          "Accept": "application/json",
          "Authorization": "[REDACTED]",
          "Content-Type": "application/json",
          "User-Agent": "grctool/1.0.0"
        }
      },
      "response": {
        "status_code": 200,
        "status": "200 OK",
        "headers": {
          "Allow": "GET, POST, HEAD, OPTIONS",
          "Content-Length": "1111",
          "Content-Type": "application/json",
          "Cross-Origin-Opener-Policy": "same-origin",
          "Date": "Thu, 03 Jul 2025 19:54:46 GMT",
          "Referrer-Policy": "same-origin",
          "Server": "nginx",
          "Vary": "Origin, Cookie",
          "X-Content-Type-Options": "nosniff",
          "X-Frame-Options": "DENY"
        },
        "body": "{\"max_page_size\":200,\"page_size\":1,\"num_pages\":105,\"page_number\":1,\"count\":105,\"next\":2,\"previous\":null,\"results\":[{\"id\":327992,\"__entity_role__\":null,\"__entity_type__\":\"org_evidence\",\"__permissions__\":[\"org_evidence:master_evidence_diff\",\"org_evidence:manage_tags\",\"org_evidence:assign\",\"org_evidence:create_subtask\",\"org_evidence:remind\",\"org_evidence:deadline\",\"org_evidence:add\",\"org_evidence:observation\",\"org_evidence:create_jira_issue\",\"org_evidence:manage_acl\",\"org_evidence:edit\",\"org_evidence:upgrade\",\"org_evidence:comment\",\"org_evidence:delete\",\"org_evidence:mark_sensitive\",\"org_evidence:mark_reviewed\",\"org_evidence:view_details\"],\"created\":\"2021-12-17T14:42:01.070790Z\",\"name\":\"Access Control / Registration and De-registration Process Document\",\"description\":\"Provide user registration and de-registration process document/Access Control policy or procedure reviewed by management.\",\"guidance\":\"\",\"ad_hoc\":false,\"last_collected\":\"2024-04-03\",\"collection_interval\":\"year\",\"due_days_before_end\":0,\"master_version_num\":5,\"sensitive\":false,\"org_id\":12345,\"completed\":true,\"master_evidence_id\":550}]}"
      },
      "timestamp": "2025-07-03T15:54:46.10048-04:00"
    },
    {
      "request": {
        "method": "GET",
        "url": "https://api-my.tugboatlogic.com/api/org_evidence/?page=1&page_size=1&org=12345",
        "headers": {
          "Accept": "application/json",
          "Authorization": "[REDACTED]",
          "Content-Type": "application/json",
          "User-Agent": "grctool/1.0.0"
        }
      },
      "response": {
        "status_code": 200,
        "status": "200 OK",
        "headers": {
          "Allow": "GET, POST, HEAD, OPTIONS",
          "Content-Length": "1111",
          "Content-Type": "application/json",
          "Cross-Origin-Opener-Policy": "same-origin",
          "Date": "Thu, 03 Jul 2025 19:58:20 GMT",
          "Referrer-Policy": "same-origin",
          "Server": "nginx",
          "Vary": "Origin, Cookie",
          "X-Content-Type-Options": "nosniff",
          "X-Frame-Options": "DENY"
        },
        "body": "{\"max_page_size\":200,\"page_size\":1,\"num_pages\":105,\"page_number\":1,\"count\":105,\"next\":2,\"previous\":null,\"results\":[{\"id\":327992,\"__entity_role__\":null,\"__entity_type__\":\"org_evidence\",\"__permissions__\":[\"org_evidence:remind\",\"org_evidence:mark_sensitive\",\"org_evidence:comment\",\"org_evidence:upgrade\",\"org_evidence:mark_reviewed\",\"org_evidence:observation\",\"org_evidence:create_subtask\",\"org_evidence:master_evidence_diff\",\"org_evidence:add\",\"org_evidence:manage_acl\",\"org_evidence:view_details\",\"org_evidence:manage_tags\",\"org_evidence:assign\",\"org_evidence:edit\",\"org_evidence:create_jira_issue\",\"org_evidence:delete\",\"org_evidence:deadline\"],\"created\":\"2021-12-17T14:42:01.070790Z\",\"name\":\"Access Control / Registration and De-registration Process Document\",\"description\":\"Provide user registration and de-registration process document/Access Control policy or procedure reviewed by management.\",\"guidance\":\"\",\"ad_hoc\":false,\"last_collected\":\"2024-04-03\",\"collection_interval\":\"year\",\"due_days_before_end\":0,\"master_version_num\":5,\"sensitive\":false,\"org_id\":12345,\"completed\":true,\"master_evidence_id\":550}]}"
      },
      "timestamp": "2025-07-03T15:58:20.618392-04:00"
    },
    {
      "request": {
        "method": "GET",
        "url": "https://api-my.tugboatlogic.com/api/org_evidence/?page=1&page_size=1&org=12345",
        "headers": {
          "Accept": "application/json",
          "Authorization": "[REDACTED]",
          "Content-Type": "application/json",
          "User-Agent": "grctool/1.0.0"
        }
      },
      "response": {
        "status_code": 200,
        "status": "200 OK",
        "headers": {
          "Allow": "GET, POST, HEAD, OPTIONS",
          "Content-Length": "1111",
          "Content-Type": "application/json",
          "Cross-Origin-Opener-Policy": "same-origin",
          "Date": "Thu, 03 Jul 2025 20:10:17 GMT",
          "Referrer-Policy": "same-origin",
          "Server": "nginx",
          "Vary": "Origin, Cookie",
          "X-Content-Type-Options": "nosniff",
          "X-Frame-Options": "DENY"
        },
        "body": "{\"max_page_size\":200,\"page_size\":1,\"num_pages\":105,\"page_number\":1,\"count\":105,\"next\":2,\"previous\":null,\"results\":[{\"id\":327992,\"__entity_role__\":null,\"__entity_type__\":\"org_evidence\",\"__permissions__\":[\"org_evidence:master_evidence_diff\",\"org_evidence:manage_tags\",\"org_evidence:assign\",\"org_evidence:create_subtask\",\"org_evidence:remind\",\"org_evidence:deadline\",\"org_evidence:add\",\"org_evidence:observation\",\"org_evidence:create_jira_issue\",\"org_evidence:manage_acl\",\"org_evidence:edit\",\"org_evidence:upgrade\",\"org_evidence:comment\",\"org_evidence:delete\",\"org_evidence:mark_sensitive\",\"org_evidence:mark_reviewed\",\"org_evidence:view_details\"],\"created\":\"2021-12-17T14:42:01.070790Z\",\"name\":\"Access Control / Registration and De-registration Process Document\",\"description\":\"Provide user registration and de-registration process document/Access Control policy or procedure reviewed by management.\",\"guidance\":\"\",\"ad_hoc\":false,\"last_collected\":\"2024-04-03\",\"collection_interval\":\"year\",\"due_days_before_end\":0,\"master_version_num\":5,\"sensitive\":false,\"org_id\":12345,\"completed\":true,\"master_evidence_id\":550}]}"
      },
      "timestamp": "2025-07-03T16:10:17.274249-04:00"
    }
  ],
  "recorded_at": "2025-07-01T17:25:42.583313-04:00"
}