{
  "name": "get_api_org_evidence_0d2f0bf07b30.json",
  "interactions": [
    {
      "request": {
        "method": "GET",
        "url": "https://api-my.tugboatlogic.com/api/org_evidence/?control_id=778805",
        "headers": {
          "Accept": "application/json",
          "Authorization": "[REDACTED]",
          "Content-Type": "application/json",
          "User-Agent": "grctool/1.0.0"
        }
      },
      "response": {
        "status_code": 200,
        "status": "200 OK",
        "headers": {
          "Allow": "GET, POST, HEAD, OPTIONS",
          "Content-Length": "10663",
          "Content-Type": "application/json",
          "Cross-Origin-Opener-Policy": "same-origin",
          "Date": "Sat, 05 Jul 2025 23:03:20 GMT",
          "Referrer-Policy": "same-origin",
          "Server": "nginx",
          "Vary": "Origin, Cookie",
          "X-Content-Type-Options": "nosniff",
          "X-Frame-Options": "DENY"
        },
        "body": "{\"max_page_size\":200,\"page_size\":10,\"num_pages\":11,\"page_number\":1,\"count\":105,\"next\":2,\"previous\":null,\"results\":[{\"id\":327992,\"__entity_role__\":null,\"__entity_type__\":\"org_evidence\",\"__permissions__\":[\"org_evidence:master_evidence_diff\",\"org_evidence:manage_tags\",\"org_evidence:assign\",\"org_evidence:create_subtask\",\"org_evidence:remind\",\"org_evidence:deadline\",\"org_evidence:add\",\"org_evidence:observation\",\"org_evidence:create_jira_issue\",\"org_evidence:manage_acl\",\"org_evidence:edit\",\"org_evidence:upgrade\",\"org_evidence:comment\",\"org_evidence:delete\",\"org_evidence:mark_sensitive\",\"org_evidence:mark_reviewed\",\"org_evidence:view_details\"],\"created\":\"2021-12-17T14:42:01.070790Z\",\"name\":\"Access Control / Registration and De-registration Process Document\",\"description\":\"Provide user registration and de-registration process document/Access Control policy or procedure reviewed by management.\",\"guidance\":\"\",\"ad_hoc\":false,\"last_collected\":\"2024-04-03\",\"collection_interval\":\"year\",\"due_days_before_end\":0,\"master_version_num\":5,\"sensitive\":false,\"org_id\":12345,\"completed\":true,\"master_evidence_id\":550},{\"id\":327993,\"__entity_role__\":null,\"__entity_type__\":\"org_evidence\",\"__permissions__\":[\"org_evidence:master_evidence_diff\",\"org_evidence:manage_tags\",\"org_evidence:assign\",\"org_evidence:create_subtask\",\"org_evidence:remind\",\"org_evidence:deadline\",\"org_evidence:add\",\"org_evidence:observation\",\"org_evidence:create_jira_issue\",\"org_evidence:manage_acl\",\"org_evidence:edit\",\"org_evidence:upgrade\",\"org_evidence:comment\",\"org_evidence:delete\",\"org_evidence:mark_sensitive\",\"org_evidence:mark_reviewed\",\"org_evidence:view_details\"],\"created\":\"2021-12-17T14:42:01.080707Z\",\"name\":\"Population 2 - List of Employees and Contractors\",\"description\":\"i) Provide a system-generated list of employees and contractors throughout the audit period including their start dates, title, and termination date (as applicable).\\nii) Demonstrate the completeness of the population by providing evidence of query and or date range entered to generate the population.\",\"guidance\":\"\",\"ad_hoc\":false,\"last_collected\":\"2025-07-01\",\"collection_interval\":\"year\",\"due_days_before_end\":0,\"master_version_num\":2,\"sensitive\":false,\"org_id\":12345,\"completed\":true,\"master_evidence_id\":536},{\"id\":327994,\"__entity_role__\":null,\"__entity_type__\":\"org_evidence\",\"__permissions__\":[\"org_evidence:master_evidence_diff\",\"org_evidence:manage_tags\",\"org_evidence:assign\",\"org_evidence:create_subtask\",\"org_evidence:remind\",\"org_evidence:deadline\",\"org_evidence:add\",\"org_evidence:observation\",\"org_evidence:create_jira_issue\",\"org_evidence:manage_acl\",\"org_evidence:edit\",\"org_evidence:upgrade\",\"org_evidence:comment\",\"org_evidence:delete\",\"org_evidence:mark_sensitive\",\"org_evidence:mark_reviewed\",\"org_evidence:view_details\"],\"created\":\"2021-12-17T14:42:01.089012Z\",\"name\":\"User Access Approval List to Application, Infrastructure and Service\",\"description\":\"For a sample of users, including privileged, selected, provide evidence of documented approval for their remote and logical access to the in-scope application and supporting infrastructure. (Samples to be provided by the auditor)\",\"guidance\":\"\",\"ad_hoc\":false,\"last_collected\":\"2025-07-01\",\"collection_interval\":\"quarter\",\"due_days_before_end\":0,\"master_version_num\":10,\"sensitive\":false,\"org_id\":12345,\"completed\":true,\"master_evidence_id\":4},{\"id\":327995,\"__entity_role__\":null,\"__entity_type__\":\"org_evidence\",\"__permissions__\":[\"org_evidence:master_evidence_diff\",\"org_evidence:manage_tags\",\"org_evidence:assign\",\"org_evidence:create_subtask\",\"org_evidence:remind\",\"org_evidence:deadline\",\"org_evidence:add\",\"org_evidence:observation\",\"org_evidence:create_jira_issue\",\"org_evidence:manage_acl\",\"org_evidence:edit\",\"org_evidence:upgrade\",\"org_evidence:comment\",\"org_evidence:delete\",\"org_evidence:mark_sensitive\",\"org_evidence:mark_reviewed\",\"org_evidence:view_details\"],\"created\":\"2021-12-17T14:42:01.096772Z\",\"name\":\"Population 15 - List of Users with Access to Application and Infrastructure\",\"description\":\"Provide the system-generated list of users with access to the application and infrastructure throughout the audit period.\",\"guidance\":\"\",\"ad_hoc\":false,\"last_collected\":\"2025-06-30\",\"collection_interval\":\"year\",\"due_days_before_end\":0,\"master_version_num\":4,\"sensitive\":false,\"org_id\":12345,\"completed\":true,\"master_evidence_id\":102},{\"id\":327996,\"__entity_role__\":null,\"__entity_type__\":\"org_evidence\",\"__permissions__\":[\"org_evidence:master_evidence_diff\",\"org_evidence:manage_tags\",\"org_evidence:assign\",\"org_evidence:create_subtask\",\"org_evidence:remind\",\"org_evidence:deadline\",\"org_evidence:add\",\"org_evidence:observation\",\"org_evidence:create_jira_issue\",\"org_evidence:manage_acl\",\"org_evidence:edit\",\"org_evidence:upgrade\",\"org_evidence:comment\",\"org_evidence:delete\",\"org_evidence:mark_sensitive\",\"org_evidence:mark_reviewed\",\"org_evidence:view_details\"],\"created\":\"2021-12-17T14:42:01.128944Z\",\"name\":\"Configuration for Application Password\",\"description\":\"Provide screenshot(s) of password configuration for all in-scope applications that show at least:\\ni) The min/max length.\\nii) The defined password complexity.\\niii) The password change frequency (e.g. every 90 days).\\niv) Account lock-out threshold (e.g. six failed attempts).\\nv) Account lock-out duration (e.g. 30 minutes or until an administrator enables the user id).\\nvi) The number of generations during which a password cannot be re-used.\\nvii) That an immediate change to a permanent password is required when a temporary password is used.\",\"guidance\":\"\",\"ad_hoc\":false,\"last_collected\":null,\"collection_interval\":\"year\",\"due_days_before_end\":0,\"master_version_num\":5,\"sensitive\":false,\"org_id\":12345,\"completed\":false,\"master_evidence_id\":10},{\"id\":327997,\"__entity_role__\":null,\"__entity_type__\":\"org_evidence\",\"__permissions__\":[\"org_evidence:master_evidence_diff\",\"org_evidence:manage_tags\",\"org_evidence:assign\",\"org_evidence:create_subtask\",\"org_evidence:remind\",\"org_evidence:deadline\",\"org_evidence:add\",\"org_evidence:observation\",\"org_evidence:create_jira_issue\",\"org_evidence:manage_acl\",\"org_evidence:edit\",\"org_evidence:upgrade\",\"org_evidence:comment\",\"org_evidence:delete\",\"org_evidence:mark_sensitive\",\"org_evidence:mark_reviewed\",\"org_evidence:view_details\"],\"created\":\"2021-12-17T14:42:01.158088Z\",\"name\":\"Enabled Multi-Factor Authentication\",\"description\":\"Provide a listing of all privileged accounts (internal and external) that have access to productions systems, and provide evidence demonstrating that MFA is activated on these accounts.\",\"guidance\":\"\",\"ad_hoc\":false,\"last_collected\":\"2025-06-30\",\"collection_interval\":\"six_month\",\"due_days_before_end\":0,\"master_version_num\":7,\"sensitive\":false,\"org_id\":12345,\"completed\":true,\"master_evidence_id\":11},{\"id\":327998,\"__entity_role__\":null,\"__entity_type__\":\"org_evidence\",\"__permissions__\":[\"org_evidence:master_evidence_diff\",\"org_evidence:manage_tags\",\"org_evidence:assign\",\"org_evidence:create_subtask\",\"org_evidence:remind\",\"org_evidence:add\",\"org_evidence:observation\",\"org_evidence:create_jira_issue\",\"org_evidence:manage_acl\",\"org_evidence:edit\",\"org_evidence:upgrade\",\"org_evidence:comment\",\"org_evidence:delete\",\"org_evidence:mark_sensitive\",\"org_evidence:mark_reviewed\",\"org_evidence:view_details\"],\"created\":\"2021-12-17T14:42:01.186577Z\",\"name\":\"Updated Antivirus Definition\",\"description\":\"For a sample of workstations, provide evidence to show the antivirus definition is up to date (the latest signatures are running the most current version).\",\"guidance\":\"\",\"ad_hoc\":false,\"last_collected\":null,\"collection_interval\":\"none\",\"due_days_before_end\":0,\"master_version_num\":2,\"sensitive\":false,\"org_id\":12345,\"completed\":false,\"master_evidence_id\":549},{\"id\":327999,\"__entity_role__\":null,\"__entity_type__\":\"org_evidence\",\"__permissions__\":[\"org_evidence:master_evidence_diff\",\"org_evidence:manage_tags\",\"org_evidence:assign\",\"org_evidence:create_subtask\",\"org_evidence:remind\",\"org_evidence:deadline\",\"org_evidence:add\",\"org_evidence:observation\",\"org_evidence:create_jira_issue\",\"org_evidence:manage_acl\",\"org_evidence:edit\",\"org_evidence:upgrade\",\"org_evidence:comment\",\"org_evidence:delete\",\"org_evidence:mark_sensitive\",\"org_evidence:mark_reviewed\",\"org_evidence:view_details\"],\"created\":\"2021-12-17T14:42:01.194638Z\",\"name\":\"Workstation Firewall Settings\",\"description\":\"Provide evidence to demonstrate that firewall is enabled for all workstations managed by the organization.\",\"guidance\":\"\",\"ad_hoc\":false,\"last_collected\":null,\"collection_interval\":\"quarter\",\"due_days_before_end\":0,\"master_version_num\":1,\"sensitive\":false,\"org_id\":12345,\"completed\":false,\"master_evidence_id\":534},{\"id\":328000,\"__entity_role__\":null,\"__entity_type__\":\"org_evidence\",\"__permissions__\":[\"org_evidence:master_evidence_diff\",\"org_evidence:manage_tags\",\"org_evidence:assign\",\"org_evidence:create_subtask\",\"org_evidence:remind\",\"org_evidence:deadline\",\"org_evidence:add\",\"org_evidence:observation\",\"org_evidence:create_jira_issue\",\"org_evidence:manage_acl\",\"org_evidence:edit\",\"org_evidence:upgrade\",\"org_evidence:comment\",\"org_evidence:delete\",\"org_evidence:mark_sensitive\",\"org_evidence:mark_reviewed\",\"org_evidence:view_details\"],\"created\":\"2021-12-17T14:42:01.202243Z\",\"name\":\"Workstation Anti-malware Settings\",\"description\":\"Provide evidence to demonstrate that anti-virus/anti-malware is enabled for all workstations managed by the organization.\",\"guidance\":\"\",\"ad_hoc\":false,\"last_collected\":null,\"collection_interval\":\"year\",\"due_days_before_end\":0,\"master_version_num\":8,\"sensitive\":false,\"org_id\":12345,\"completed\":false,\"master_evidence_id\":63},{\"id\":328001,\"__entity_role__\":null,\"__entity_type__\":\"org_evidence\",\"__permissions__\":[\"org_evidence:master_evidence_diff\",\"org_evidence:manage_tags\",\"org_evidence:assign\",\"org_evidence:create_subtask\",\"org_evidence:remind\",\"org_evidence:deadline\",\"org_evidence:add\",\"org_evidence:observation\",\"org_evidence:create_jira_issue\",\"org_evidence:manage_acl\",\"org_evidence:edit\",\"org_evidence:upgrade\",\"org_evidence:comment\",\"org_evidence:delete\",\"org_evidence:mark_sensitive\",\"org_evidence:mark_reviewed\",\"org_evidence:view_details\"],\"created\":\"2021-12-17T14:42:01.231735Z\",\"name\":\"Report of Vulnerability Scan and Remediation Status\",\"description\":\"Provide the vulnerability scan results for a sample quarter (or any other applicable frequency), along with status and action items for the identified issues.\",\"guidance\":\"\",\"ad_hoc\":false,\"last_collected\":null,\"collection_interval\":\"quarter\",\"due_days_before_end\":0,\"master_version_num\":8,\"sensitive\":false,\"org_id\":12345,\"completed\":false,\"master_evidence_id\":95}]}"
      },
      "timestamp": "2025-07-05T19:03:20.613134-04:00"
    }
  ],
  "recorded_at": "2025-07-05T19:03:20.61348-04:00"
}